{
  "key": "confluence-cards",
  "name": "Confluence",
  "description": "Confluence Cards",
  "vendor": {
    "name": "Yann Jouanique",
    "url": "https://www.hipchat.com"
  },
  "links": {
    "self": "{{localBaseUrl}}/atlassian-connect.json",
    "homepage": "{{localBaseUrl}}"
  },
  "capabilities": {
    "hipchatApiConsumer": {
      "scopes": [
        "send_notification",
        "view_room"
      ],
      "avatar": {
        "url": "{{localBaseUrl}}/img/logo.png",
        "url@2x": "{{localBaseUrl}}/img/logo.png"
      }
    },
    "installable": {
      "callbackUrl": "{{localBaseUrl}}/installable"
    },
    "configurable": {
      "url": "{{localBaseUrl}}/config"
    },
    "webhook": {
      "url": "{{localBaseUrl}}/webhook",
      "pattern": "http(s)?://",
      "event": "room_message",
      "name": "Detect Confluence urls",
      "authentication": "jwt"
    },
    "glance": [
      {
        "name": {
          "value": "Confluence"
        },
        "queryUrl": "{{localBaseUrl}}/glance",
        "key": "concluence.glance",
        "target": "confluence.sidebar",
        "icon": {
          "url": "{{localBaseUrl}}/img/logo.png",
          "url@2x": "{{localBaseUrl}}/img/logo.png"
        }
      }
    ],
    "webPanel": [
      {
        "key": "concluence.sidebar",
        "name": {
          "value": "Confluence"
        },
        "location": "hipchat.sidebar.right",
        "url": "{{localBaseUrl}}/sidebar"
      }
    ]
  }
}
